{
  "web": {
    "client_id": "381736853538-a4d2rj4f0e2b3q75tnrbjiginm96vear.apps.googleusercontent.com",
    "project_id": "mappings-1355",
    "auth_uri": "https://accounts.google.com/o/oauth2/auth",
    "token_uri": "https://accounts.google.com/o/oauth2/token",
    "auth_provider_x509_cert_url": "https://www.googleapis.com/oauth2/v1/certs",
    "client_secret": "6mjU18XjCl1txRHPlDOsHCe_",
    "url-find": "https://console.developers.google.com/apis/credentials?project=mappings-1355"
  }
}